<?xml version="1.0" encoding="UTF-8" standalone="no"?>
<!-- Created with Inkscape (http://www.inkscape.org/) -->

<svg
   xmlns:dc="http://purl.org/dc/elements/1.1/"
   xmlns:cc="http://creativecommons.org/ns#"
   xmlns:rdf="http://www.w3.org/1999/02/22-rdf-syntax-ns#"
   xmlns:svg="http://www.w3.org/2000/svg"
   xmlns="http://www.w3.org/2000/svg"
   xmlns:sodipodi="http://sodipodi.sourceforge.net/DTD/sodipodi-0.dtd"
   xmlns:inkscape="http://www.inkscape.org/namespaces/inkscape"
   width="45.695751mm"
   height="61.273205mm"
   viewBox="0 0 161.91408 217.10978"
   id="svg2"
   version="1.1"
   inkscape:version="0.91 r13725"
   sodipodi:docname="vegoa-product-icon.svg">
  <defs
     id="defs4" />
  <sodipodi:namedview
     id="base"
     pagecolor="#ffffff"
     bordercolor="#666666"
     borderopacity="1.0"
     inkscape:pageopacity="0.0"
     inkscape:pageshadow="2"
     inkscape:zoom="2.8"
     inkscape:cx="104.72766"
     inkscape:cy="113.21824"
     inkscape:document-units="px"
     inkscape:current-layer="layer1"
     showgrid="false"
     showguides="true"
     inkscape:guide-bbox="true"
     fit-margin-top="0"
     fit-margin-left="0"
     fit-margin-right="0"
     fit-margin-bottom="0"
     inkscape:window-width="1855"
     inkscape:window-height="1056"
     inkscape:window-x="65"
     inkscape:window-y="24"
     inkscape:window-maximized="1" />
  <metadata
     id="metadata7">
    <rdf:RDF>
      <cc:Work
         rdf:about="">
        <dc:format>image/svg+xml</dc:format>
        <dc:type
           rdf:resource="http://purl.org/dc/dcmitype/StillImage" />
        <dc:title></dc:title>
      </cc:Work>
    </rdf:RDF>
  </metadata>
  <g
     inkscape:label="Layer 1"
     inkscape:groupmode="layer"
     id="layer1"
     transform="translate(-540.57513,-137.13426)">
    <rect
       ry="23.194304"
       y="137.13426"
       x="540.57513"
       height="161.91411"
       width="161.91408"
       id="rect4396"
       style="opacity:1;fill:#50c5db;fill-opacity:1;stroke:none;stroke-width:1;stroke-miterlimit:4;stroke-dasharray:none;stroke-opacity:1" />
    <path
       sodipodi:nodetypes="ccccccc"
       inkscape:connector-curvature="0"
       id="path4288-4"
       d="m 653.80002,216.00414 -32.45647,64.07924 c 7.93144,6.35123 16.15225,12.34514 23.98811,18.81512 l 33.26343,0.0765 c 10.48507,-0.0272 19.59016,-3.88706 23.6958,-19.98097 l 0.12437,-23.19526 z"
       style="fill:#42a3b6;fill-opacity:1;fill-rule:evenodd;stroke:none;stroke-width:1px;stroke-linecap:butt;stroke-linejoin:miter;stroke-opacity:1" />
    <path
       sodipodi:nodetypes="ccccc"
       inkscape:connector-curvature="0"
       id="path4317-9"
       d="m 702.29299,251.55244 -0.12408,-31.57246 -44.9255,-38.18619 c -51.83791,61.09011 -24.79646,66.30734 -35.54216,98.29046 z"
       style="fill:#42a3b6;fill-opacity:1;fill-rule:evenodd;stroke:none;stroke-width:1px;stroke-linecap:butt;stroke-linejoin:miter;stroke-opacity:1" />
    <path
       sodipodi:nodetypes="cccccc"
       inkscape:connector-curvature="0"
       id="path4319-3"
       d="m 612.01347,171.23963 -23.74024,29.80078 92.68164,75.25586 21.29064,-13.03268 0.0774,-19.34613 c -31.6669,-25.61177 -63.22817,-51.12279 -90.30944,-72.67783 z"
       style="fill:#42a3b6;fill-opacity:1;fill-rule:evenodd;stroke:none;stroke-width:1px;stroke-linecap:butt;stroke-linejoin:miter;stroke-opacity:1" />
    <g
       style="fill:#ffffff"
       id="g4260-5"
       transform="translate(268.30839,-26.027948)">
      <path
         sodipodi:nodetypes="czzccczczc"
         inkscape:connector-curvature="0"
         id="path4217-8"
         d="m 299.55078,176.42756 c 0,0 2.49373,4.26789 9.76913,7.81382 7.2754,3.54593 25.12911,6.29327 34.70413,13.25761 9.57502,6.96434 17.01667,22.65467 5.33548,30.88388 3.67787,6.09731 5.93151,16.28409 5.90555,22.04469 l -3.12763,-0.12627 c 0,0 -0.31829,-8.17686 -1.51523,-12.08801 -1.19694,-3.91115 -3.54977,-6.82905 -3.54977,-6.82905 0,0 -2.01584,4.39792 -11.53689,3.46682 -9.52105,-0.93109 -34.22606,-16.75131 -35.98477,-58.42349 z"
         style="fill:#ffffff;fill-opacity:1;fill-rule:evenodd;stroke:none;stroke-width:1px;stroke-linecap:butt;stroke-linejoin:miter;stroke-opacity:1" />
      <path
         sodipodi:nodetypes="czzccczczc"
         inkscape:connector-curvature="0"
         id="path4217-9-8"
         d="m 389.30767,207.50921 c 0,0 -1.74187,2.16192 -6.07916,3.52305 -4.3373,1.36114 -14.4831,1.39427 -20.38343,4.46174 -5.90033,3.06747 -11.57688,11.26839 -5.77711,16.81564 -2.55252,3.07898 -4.08999,6.21814 -4.55722,9.41979 l 1.74767,0.1914 c 0,0 0.52601,-2.29325 1.51782,-4.36546 0.9918,-2.0722 2.27937,-3.17712 2.27937,-3.17712 0,0 1.01508,2.2922 6.38099,2.57112 5.36592,0.27894 20.41002,-6.44213 24.87107,-29.44014 z"
         style="fill:#ffffff;fill-opacity:1;fill-rule:evenodd;stroke:none;stroke-width:1px;stroke-linecap:butt;stroke-linejoin:miter;stroke-opacity:1" />
      <path
         sodipodi:nodetypes="cccccccc"
         inkscape:connector-curvature="0"
         id="path4238-4"
         d="m 334.7395,236.75681 c -11.38545,8e-5 -20.61515,9.22978 -20.61524,20.61523 1.60043,18.50052 26.73891,35.99178 39.24024,48.92978 12.53058,-16.5656 39.00621,-28.88418 39.24023,-48.42359 -9e-5,-11.38544 -9.22979,-20.61514 -20.61523,-20.61523 -7.87566,0.0106 -15.0571,4.50748 -18.50586,11.58789 -3.33907,-7.3554 -10.66632,-12.08296 -18.74414,-12.09375 z"
         style="opacity:1;fill:#ffffff;fill-opacity:1;stroke:none;stroke-width:0.93294585;stroke-miterlimit:4;stroke-dasharray:none;stroke-opacity:1" />
    </g>
    <g
       id="g4509"
       transform="matrix(0.73634808,0,0,0.73634808,419.62843,22.918091)">
      <text
         sodipodi:linespacing="125%"
         id="text4489"
         y="430.4761"
         x="169.90517"
         style="font-style:normal;font-weight:normal;font-size:82.5517807px;line-height:125%;font-family:sans-serif;letter-spacing:0px;word-spacing:0px;fill:#50c5db;fill-opacity:0.99583333;stroke:none;stroke-width:1px;stroke-linecap:butt;stroke-linejoin:miter;stroke-opacity:1"
         xml:space="preserve"><tspan
           style="font-style:normal;font-variant:normal;font-weight:normal;font-stretch:normal;font-family:'Source Sans Pro';-inkscape-font-specification:'Source Sans Pro';fill:#50c5db;fill-opacity:0.99583333"
           y="430.4761"
           x="169.90517"
           id="tspan4491"
           sodipodi:role="line">v</tspan></text>
      <text
         sodipodi:linespacing="125%"
         id="text4493"
         y="431.46674"
         x="211.412"
         style="font-style:normal;font-weight:normal;font-size:82.5517807px;line-height:125%;font-family:sans-serif;letter-spacing:0px;word-spacing:0px;fill:#199c93;fill-opacity:1;stroke:none;stroke-width:1px;stroke-linecap:butt;stroke-linejoin:miter;stroke-opacity:1"
         xml:space="preserve"><tspan
           style="font-style:normal;font-variant:normal;font-weight:normal;font-stretch:normal;font-family:'Source Sans Pro';-inkscape-font-specification:'Source Sans Pro'"
           y="431.46674"
           x="211.412"
           id="tspan4495"
           sodipodi:role="line">e</tspan></text>
      <text
         sodipodi:linespacing="125%"
         id="text4497"
         y="431.46674"
         x="253.08395"
         style="font-style:normal;font-weight:normal;font-size:82.5517807px;line-height:125%;font-family:sans-serif;letter-spacing:0px;word-spacing:0px;fill:#b8d433;fill-opacity:1;stroke:none;stroke-width:1px;stroke-linecap:butt;stroke-linejoin:miter;stroke-opacity:1"
         xml:space="preserve"><tspan
           style="font-style:normal;font-variant:normal;font-weight:normal;font-stretch:normal;font-family:'Source Sans Pro';-inkscape-font-specification:'Source Sans Pro'"
           y="431.46674"
           x="253.08395"
           id="tspan4499"
           sodipodi:role="line">g</tspan></text>
      <text
         sodipodi:linespacing="125%"
         id="text4501"
         y="431.46674"
         x="295.91162"
         style="font-style:normal;font-weight:normal;font-size:82.5517807px;line-height:125%;font-family:sans-serif;letter-spacing:0px;word-spacing:0px;fill:#ddde24;fill-opacity:1;stroke:none;stroke-width:1px;stroke-linecap:butt;stroke-linejoin:miter;stroke-opacity:1"
         xml:space="preserve"><tspan
           style="font-style:normal;font-variant:normal;font-weight:normal;font-stretch:normal;font-family:'Source Sans Pro';-inkscape-font-specification:'Source Sans Pro'"
           y="431.46674"
           x="295.91162"
           id="tspan4503"
           sodipodi:role="line">o</tspan></text>
      <text
         sodipodi:linespacing="125%"
         id="text4505"
         y="431.46674"
         x="340.8031"
         style="font-style:normal;font-weight:normal;font-size:82.5517807px;line-height:125%;font-family:sans-serif;letter-spacing:0px;word-spacing:0px;fill:#c03728;fill-opacity:1;stroke:none;stroke-width:1px;stroke-linecap:butt;stroke-linejoin:miter;stroke-opacity:1"
         xml:space="preserve"><tspan
           style="font-style:normal;font-variant:normal;font-weight:normal;font-stretch:normal;font-family:'Source Sans Pro';-inkscape-font-specification:'Source Sans Pro'"
           y="431.46674"
           x="340.8031"
           id="tspan4507"
           sodipodi:role="line">a</tspan></text>
    </g>
  </g>
</svg>
